{
  "id": "RedshiftDataConsolidatedService",
  "pipelineName": "RedshiftDataConsolidatedService",
  "pipelineDescription": "RedshiftDataConsolidatedService",

  "workerGroup": "analyticsDataPipelineWorker",
  "workerGroupRange": {"low": "1", "high": "10"},
  "SchedulePeriod": "2 Hours",

  "pipelineTags": [
    {"key": "Service", "value": "RedshiftDataConsolidated"},
    {"key": "Area", "value": "Analytics"}
  ],



  "scriptsToExecute": [
    {"s3Key": "RedshiftDataConsolidatedService/sql/transactional", "fileName": "consolidated_facebook_ads.sql"},
    {"s3Key": "RedshiftDataConsolidatedService/sql/transactional", "fileName": "consolidated_google_adwords.sql"},
    {"s3Key": "RedshiftDataConsolidatedService/sql/transactional", "fileName": "consolidated_google_uac.sql"},
    {"s3Key": "RedshiftDataConsolidatedService/sql/events", "fileName": "user_registered.sql"},
    {"s3Key": "RedshiftDataConsolidatedService/sql/events", "fileName": "installs.sql"},
    {"s3Key": "RedshiftDataConsolidatedService/sql/events", "fileName": "payments.sql"},
    {"s3Key": "RedshiftDataConsolidatedService/sql/events", "fileName": "payments_failed.sql"},
    {"s3Key": "RedshiftDataConsolidatedService/sql/events", "fileName": "subscription_canceled.sql"}
  ]

}


